[{"assists":6.88,"banRate":0.09,"deaths":6.11,"experience":47.32,"goldEarned":11687,"kills":4.54,"largestKillingSpree":2.07,"minionsKilled":171.2,"neutralMinionsKilledEnemyJungle":1.78,"neutralMinionsKilledTeamJungle":4.1,"overallPosition":53,"overallPositionChange":-1,"playPercent":0.51,"winPercent":45.18,"key":"Yorick","role":"Top","title":"Yorick"},
{"assists":5.48,"banRate":0.08,"deaths":6.57,"experience":49.35,"goldEarned":12059,"kills":5.27,"largestKillingSpree":2.48,"minionsKilled":187.4,"neutralMinionsKilledEnemyJungle":3.14,"neutralMinionsKilledTeamJungle":5.59,"overallPosition":55,"overallPositionChange":0,"playPercent":0.56,"winPercent":48.98,"key":"Mordekaiser","role":"Top","title":"Mordekaiser"},
{"assists":7.45,"banRate":0.06,"deaths":6.26,"experience":121.63,"goldEarned":12495,"kills":3.89,"largestKillingSpree":1.81,"minionsKilled":224.7,"neutralMinionsKilledEnemyJungle":1.89,"neutralMinionsKilledTeamJungle":1.51,"overallPosition":24,"overallPositionChange":0,"playPercent":1.4,"winPercent":50.95,"key":"Singed","role":"Top","title":"Singed"},
{"assists":9.38,"banRate":0.09,"deaths":5.05,"experience":27.61,"goldEarned":12105,"kills":4.15,"largestKillingSpree":2.07,"minionsKilled":205,"neutralMinionsKilledEnemyJungle":1.32,"neutralMinionsKilledTeamJungle":2.8,"overallPosition":33,"overallPositionChange":-7,"playPercent":0.26,"winPercent":50.96,"key":"Galio","role":"Top","title":"Galio"},
{"assists":5.95,"banRate":0.12,"deaths":6.43,"experience":81.03,"goldEarned":12472,"kills":5.93,"largestKillingSpree":2.69,"minionsKilled":190.4,"neutralMinionsKilledEnemyJungle":2.11,"neutralMinionsKilledTeamJungle":6.53,"overallPosition":49,"overallPositionChange":0,"playPercent":0.19,"winPercent":46.18,"key":"Cassiopeia","role":"Top","title":"Cassiopeia"},
{"assists":7.38,"banRate":0.05,"deaths":6.1,"experience":8.35,"goldEarned":11013,"kills":3.6,"largestKillingSpree":1.6,"minionsKilled":162.9,"neutralMinionsKilledEnemyJungle":2.32,"neutralMinionsKilledTeamJungle":4.25,"overallPosition":56,"overallPositionChange":0,"playPercent":0.12,"winPercent":39.71,"key":"Nunu","role":"Top","title":"Nunu"},
{"assists":6.18,"banRate":0.11,"deaths":5.85,"experience":146.09,"goldEarned":12186,"kills":3.96,"largestKillingSpree":1.83,"minionsKilled":205.4,"neutralMinionsKilledEnemyJungle":1.37,"neutralMinionsKilledTeamJungle":2.5,"overallPosition":43,"overallPositionChange":-5,"playPercent":0.69,"winPercent":49.84,"key":"Heimerdinger","role":"Top","title":"Heimerdinger"},
{"assists":6.24,"banRate":0.16,"deaths":6.23,"experience":47.3,"goldEarned":12162,"kills":5.81,"largestKillingSpree":2.71,"minionsKilled":184.6,"neutralMinionsKilledEnemyJungle":2.5,"neutralMinionsKilledTeamJungle":5.48,"overallPosition":45,"overallPositionChange":-1,"playPercent":1.22,"winPercent":48.56,"key":"Ryze","role":"Top","title":"Ryze"},
{"assists":6.17,"banRate":0.23,"deaths":5.57,"experience":47.13,"goldEarned":12563,"kills":5.58,"largestKillingSpree":2.78,"minionsKilled":191.2,"neutralMinionsKilledEnemyJungle":4.76,"neutralMinionsKilledTeamJungle":7.21,"overallPosition":28,"overallPositionChange":14,"playPercent":1.02,"winPercent":51.23,"key":"Aatrox","role":"Top","title":"Aatrox"},
{"assists":6.37,"banRate":0.25,"deaths":6.22,"experience":43.85,"goldEarned":12002,"kills":5.84,"largestKillingSpree":2.68,"minionsKilled":180.2,"neutralMinionsKilledEnemyJungle":1.44,"neutralMinionsKilledTeamJungle":3.84,"overallPosition":46,"overallPositionChange":2,"playPercent":0.85,"winPercent":49.45,"key":"Urgot","role":"Top","title":"Urgot"},
{"assists":6.63,"banRate":0.05,"deaths":6.42,"experience":60.75,"goldEarned":12442,"kills":6.4,"largestKillingSpree":2.98,"minionsKilled":186.5,"neutralMinionsKilledEnemyJungle":2.31,"neutralMinionsKilledTeamJungle":5.65,"overallPosition":48,"overallPositionChange":-5,"playPercent":0.97,"winPercent":45.9,"key":"Jayce","role":"Top","title":"Jayce"},
{"assists":7.83,"banRate":0.11,"deaths":5.87,"experience":38.65,"goldEarned":11823,"kills":4.93,"largestKillingSpree":2.32,"minionsKilled":165.8,"neutralMinionsKilledEnemyJungle":2.22,"neutralMinionsKilledTeamJungle":5.24,"overallPosition":50,"overallPositionChange":4,"playPercent":0.31,"winPercent":44.67,"key":"Warwick","role":"Top","title":"Warwick"},
{"assists":6.71,"banRate":0.05,"deaths":5.71,"experience":58.52,"goldEarned":11676,"kills":5.09,"largestKillingSpree":2.46,"minionsKilled":175,"neutralMinionsKilledEnemyJungle":1.11,"neutralMinionsKilledTeamJungle":2.42,"overallPosition":51,"overallPositionChange":-4,"playPercent":1.29,"winPercent":46.24,"key":"Kennen","role":"Top","title":"Kennen"},
{"assists":8.97,"banRate":0.09,"deaths":5.74,"experience":30.4,"goldEarned":11575,"kills":4.07,"largestKillingSpree":1.94,"minionsKilled":180,"neutralMinionsKilledEnemyJungle":1.24,"neutralMinionsKilledTeamJungle":3.1,"overallPosition":47,"overallPositionChange":-1,"playPercent":1.6,"winPercent":47.2,"key":"Maokai","role":"Top","title":"Maokai"},
{"assists":6.98,"banRate":0.35,"deaths":6.04,"experience":54.56,"goldEarned":12156,"kills":6.47,"largestKillingSpree":3.09,"minionsKilled":174.3,"neutralMinionsKilledEnemyJungle":2.27,"neutralMinionsKilledTeamJungle":4.86,"overallPosition":41,"overallPositionChange":10,"playPercent":0.93,"winPercent":46.51,"key":"Hecarim","role":"Top","title":"Hecarim"},
{"assists":7.41,"banRate":0.11,"deaths":6.55,"experience":69.87,"goldEarned":11554,"kills":5.46,"largestKillingSpree":2.51,"minionsKilled":159,"neutralMinionsKilledEnemyJungle":1.38,"neutralMinionsKilledTeamJungle":3.51,"overallPosition":54,"overallPositionChange":-1,"playPercent":0.92,"winPercent":44.05,"key":"Rumble","role":"Top","title":"Rumble"},
{"assists":5.78,"banRate":0.39,"deaths":6.64,"experience":107.59,"goldEarned":12771,"kills":6.09,"largestKillingSpree":2.66,"minionsKilled":192.5,"neutralMinionsKilledEnemyJungle":2.88,"neutralMinionsKilledTeamJungle":4.14,"overallPosition":35,"overallPositionChange":-5,"playPercent":2.17,"winPercent":48.73,"key":"Teemo","role":"Top","title":"Teemo"},
{"assists":6.56,"banRate":0.08,"deaths":6.08,"experience":73.9,"goldEarned":11476,"kills":5.53,"largestKillingSpree":2.56,"minionsKilled":157.6,"neutralMinionsKilledEnemyJungle":1.38,"neutralMinionsKilledTeamJungle":4.47,"overallPosition":52,"overallPositionChange":-2,"playPercent":0.56,"winPercent":45.88,"key":"Swain","role":"Top","title":"Swain"},
{"assists":5.89,"banRate":2.29,"deaths":6.55,"experience":19.96,"goldEarned":12136,"kills":5.01,"largestKillingSpree":2.28,"minionsKilled":193.4,"neutralMinionsKilledEnemyJungle":1.49,"neutralMinionsKilledTeamJungle":2.57,"overallPosition":29,"overallPositionChange":-2,"playPercent":2.58,"winPercent":47.36,"key":"Illaoi","role":"Top","title":"Illaoi"},
{"assists":5.85,"banRate":0.19,"deaths":6.29,"experience":30.06,"goldEarned":12247,"kills":5.95,"largestKillingSpree":2.71,"minionsKilled":184.5,"neutralMinionsKilledEnemyJungle":2.65,"neutralMinionsKilledTeamJungle":4.4,"overallPosition":44,"overallPositionChange":1,"playPercent":2.29,"winPercent":46.2,"key":"Olaf","role":"Top","title":"Olaf"},
{"assists":8.86,"banRate":0.05,"deaths":5.21,"experience":49.83,"goldEarned":12178,"kills":4.49,"largestKillingSpree":2.16,"minionsKilled":194.8,"neutralMinionsKilledEnemyJungle":1.62,"neutralMinionsKilledTeamJungle":2.45,"overallPosition":23,"overallPositionChange":0,"playPercent":2.11,"winPercent":53.14,"key":"Sion","role":"Top","title":"Sion"},
{"assists":7.39,"banRate":19.69,"deaths":5.01,"experience":14.47,"goldEarned":12153,"kills":4.72,"largestKillingSpree":2.48,"minionsKilled":193.7,"neutralMinionsKilledEnemyJungle":2.32,"neutralMinionsKilledTeamJungle":3.16,"overallPosition":5,"overallPositionChange":-4,"playPercent":3.79,"winPercent":49.36,"key":"DrMundo","role":"Top","title":"Dr. Mundo"},
{"assists":6.13,"banRate":0.5,"deaths":5.21,"experience":40.1,"goldEarned":12471,"kills":5.52,"largestKillingSpree":2.91,"minionsKilled":197.6,"neutralMinionsKilledEnemyJungle":2.7,"neutralMinionsKilledTeamJungle":5.64,"overallPosition":27,"overallPositionChange":-2,"playPercent":2.63,"winPercent":48.08,"key":"Chogath","role":"Top","title":"Cho'Gath"},
{"assists":6.38,"banRate":0.17,"deaths":6.45,"experience":51.97,"goldEarned":12217,"kills":5.05,"largestKillingSpree":2.28,"minionsKilled":197.6,"neutralMinionsKilledEnemyJungle":2.61,"neutralMinionsKilledTeamJungle":4.82,"overallPosition":37,"overallPositionChange":-4,"playPercent":3.23,"winPercent":46.08,"key":"Vladimir","role":"Top","title":"Vladimir"},
{"assists":4.32,"banRate":0.32,"deaths":5.83,"experience":99.25,"goldEarned":13260,"kills":5.57,"largestKillingSpree":2.57,"minionsKilled":216.6,"neutralMinionsKilledEnemyJungle":7.25,"neutralMinionsKilledTeamJungle":7.99,"overallPosition":21,"overallPositionChange":-2,"playPercent":3.27,"winPercent":51.41,"key":"Tryndamere","role":"Top","title":"Tryndamere"},
{"assists":6.51,"banRate":2.04,"deaths":6.2,"experience":35.43,"goldEarned":12608,"kills":7.16,"largestKillingSpree":3.35,"minionsKilled":185.3,"neutralMinionsKilledEnemyJungle":2.92,"neutralMinionsKilledTeamJungle":5.02,"overallPosition":16,"overallPositionChange":-5,"playPercent":2.92,"winPercent":49.86,"key":"Akali","role":"Top","title":"Akali"},
{"assists":6.2,"banRate":0.76,"deaths":5.89,"experience":46.3,"goldEarned":12713,"kills":5.55,"largestKillingSpree":2.68,"minionsKilled":207.8,"neutralMinionsKilledEnemyJungle":3.5,"neutralMinionsKilledTeamJungle":7.13,"overallPosition":17,"overallPositionChange":-1,"playPercent":2.31,"winPercent":54.26,"key":"Kayle","role":"Top","title":"Kayle"},
{"assists":7.62,"banRate":0.26,"deaths":5.88,"experience":45.39,"goldEarned":12019,"kills":5.24,"largestKillingSpree":2.55,"minionsKilled":180.5,"neutralMinionsKilledEnemyJungle":1.94,"neutralMinionsKilledTeamJungle":3.34,"overallPosition":31,"overallPositionChange":8,"playPercent":4.9,"winPercent":48.06,"key":"Gnar","role":"Top","title":"Gnar"},
{"assists":7.7,"banRate":35.03,"deaths":5.04,"experience":18.71,"goldEarned":11849,"kills":4.84,"largestKillingSpree":2.51,"minionsKilled":178.6,"neutralMinionsKilledEnemyJungle":1.67,"neutralMinionsKilledTeamJungle":2.57,"overallPosition":26,"overallPositionChange":3,"playPercent":1.97,"winPercent":46.51,"key":"TahmKench","role":"Top","title":"Tahm Kench"},
{"assists":9.1,"banRate":0.48,"deaths":4.66,"experience":61.28,"goldEarned":11888,"kills":4.93,"largestKillingSpree":2.67,"minionsKilled":173.3,"neutralMinionsKilledEnemyJungle":2.31,"neutralMinionsKilledTeamJungle":4.92,"overallPosition":32,"overallPositionChange":-1,"playPercent":0.69,"winPercent":50.17,"key":"Zac","role":"Top","title":"Zac"},
{"assists":5.66,"banRate":0.59,"deaths":6.02,"experience":89.83,"goldEarned":12345,"kills":6.71,"largestKillingSpree":3.17,"minionsKilled":187.9,"neutralMinionsKilledEnemyJungle":1.97,"neutralMinionsKilledTeamJungle":3.16,"overallPosition":30,"overallPositionChange":-8,"playPercent":4.78,"winPercent":48.32,"key":"Irelia","role":"Top","title":"Irelia"},
{"assists":7.63,"banRate":2.36,"deaths":5.48,"experience":40.7,"goldEarned":14013,"kills":5.86,"largestKillingSpree":2.87,"minionsKilled":218.1,"neutralMinionsKilledEnemyJungle":2.15,"neutralMinionsKilledTeamJungle":5.36,"overallPosition":3,"overallPositionChange":-1,"playPercent":4.13,"winPercent":49.72,"key":"Gangplank","role":"Top","title":"Gangplank"},
{"assists":5.52,"banRate":3.08,"deaths":6.65,"experience":147.28,"goldEarned":12876,"kills":7.97,"largestKillingSpree":3.51,"minionsKilled":172.4,"neutralMinionsKilledEnemyJungle":5.09,"neutralMinionsKilledTeamJungle":10.61,"overallPosition":34,"overallPositionChange":6,"playPercent":1.25,"winPercent":50.19,"key":"Rengar","role":"Top","title":"Rengar"},
{"assists":5.82,"banRate":1.88,"deaths":5.16,"experience":35.13,"goldEarned":12586,"kills":6.51,"largestKillingSpree":3.34,"minionsKilled":192,"neutralMinionsKilledEnemyJungle":2.23,"neutralMinionsKilledTeamJungle":3.01,"overallPosition":1,"overallPositionChange":2,"playPercent":5.75,"winPercent":51.11,"key":"Garen","role":"Top","title":"Garen"},
{"assists":6.58,"banRate":0.28,"deaths":5.79,"experience":110.74,"goldEarned":12267,"kills":6.85,"largestKillingSpree":3.26,"minionsKilled":173.9,"neutralMinionsKilledEnemyJungle":2.12,"neutralMinionsKilledTeamJungle":4.62,"overallPosition":25,"overallPositionChange":-4,"playPercent":3.13,"winPercent":50.73,"key":"MonkeyKing","role":"Top","title":"Wukong"},
{"assists":7.64,"banRate":0.56,"deaths":5.66,"experience":23.97,"goldEarned":12053,"kills":4.36,"largestKillingSpree":2.09,"minionsKilled":202.5,"neutralMinionsKilledEnemyJungle":1.48,"neutralMinionsKilledTeamJungle":3.89,"overallPosition":39,"overallPositionChange":-5,"playPercent":2.14,"winPercent":46.52,"key":"Lissandra","role":"Top","title":"Lissandra"},
{"assists":6.44,"banRate":0.66,"deaths":5.68,"experience":47.42,"goldEarned":12503,"kills":5.66,"largestKillingSpree":2.77,"minionsKilled":200.5,"neutralMinionsKilledEnemyJungle":3.2,"neutralMinionsKilledTeamJungle":4.56,"overallPosition":11,"overallPositionChange":17,"playPercent":6.76,"winPercent":49.76,"key":"Renekton","role":"Top","title":"Renekton"},
{"assists":10.63,"banRate":1.01,"deaths":4.54,"experience":37.4,"goldEarned":11799,"kills":4.13,"largestKillingSpree":2.22,"minionsKilled":180.2,"neutralMinionsKilledEnemyJungle":1.41,"neutralMinionsKilledTeamJungle":2.69,"overallPosition":22,"overallPositionChange":-2,"playPercent":5.55,"winPercent":51.6,"key":"Shen","role":"Top","title":"Shen"},
{"assists":5.05,"banRate":0.55,"deaths":6.38,"experience":146.43,"goldEarned":12607,"kills":6.81,"largestKillingSpree":3.11,"minionsKilled":191,"neutralMinionsKilledEnemyJungle":4.26,"neutralMinionsKilledTeamJungle":7.11,"overallPosition":36,"overallPositionChange":-4,"playPercent":6.27,"winPercent":47.8,"key":"Riven","role":"Top","title":"Riven"},
{"assists":6.69,"banRate":5.09,"deaths":6.7,"experience":30.95,"goldEarned":12798,"kills":7.69,"largestKillingSpree":3.5,"minionsKilled":185.5,"neutralMinionsKilledEnemyJungle":2.83,"neutralMinionsKilledTeamJungle":4.84,"overallPosition":7,"overallPositionChange":1,"playPercent":4.34,"winPercent":52.84,"key":"Quinn","role":"Top","title":"Quinn"},
{"assists":7.41,"banRate":0.99,"deaths":4.84,"experience":27.25,"goldEarned":12120,"kills":4.93,"largestKillingSpree":2.58,"minionsKilled":190.9,"neutralMinionsKilledEnemyJungle":2.18,"neutralMinionsKilledTeamJungle":3.48,"overallPosition":8,"overallPositionChange":9,"playPercent":5.34,"winPercent":52.41,"key":"Trundle","role":"Top","title":"Trundle"},
{"assists":6.52,"banRate":3.03,"deaths":6.4,"experience":48.56,"goldEarned":12189,"kills":8.05,"largestKillingSpree":3.65,"minionsKilled":157,"neutralMinionsKilledEnemyJungle":1.74,"neutralMinionsKilledTeamJungle":3.54,"overallPosition":18,"overallPositionChange":-8,"playPercent":5.13,"winPercent":52.6,"key":"Pantheon","role":"Top","title":"Pantheon"},
{"assists":7.18,"banRate":1.34,"deaths":5.31,"experience":49.62,"goldEarned":12123,"kills":6.21,"largestKillingSpree":3.16,"minionsKilled":170.7,"neutralMinionsKilledEnemyJungle":2.48,"neutralMinionsKilledTeamJungle":3.55,"overallPosition":20,"overallPositionChange":-5,"playPercent":2.5,"winPercent":51.6,"key":"Volibear","role":"Top","title":"Volibear"},
{"assists":9,"banRate":8.67,"deaths":5.34,"experience":14.67,"goldEarned":11990,"kills":4.26,"largestKillingSpree":2.12,"minionsKilled":186.4,"neutralMinionsKilledEnemyJungle":1.59,"neutralMinionsKilledTeamJungle":2.78,"overallPosition":12,"overallPositionChange":0,"playPercent":4.18,"winPercent":53.87,"key":"Rammus","role":"Top","title":"Rammus"},
{"assists":5.92,"banRate":1.51,"deaths":5.26,"experience":48.69,"goldEarned":12421,"kills":4.96,"largestKillingSpree":2.55,"minionsKilled":202.6,"neutralMinionsKilledEnemyJungle":2.16,"neutralMinionsKilledTeamJungle":4.36,"overallPosition":6,"overallPositionChange":1,"playPercent":7.65,"winPercent":51.67,"key":"Nasus","role":"Top","title":"Nasus"},
{"assists":4.49,"banRate":12.92,"deaths":6.74,"experience":39.04,"goldEarned":12418,"kills":5.99,"largestKillingSpree":2.64,"minionsKilled":186.9,"neutralMinionsKilledEnemyJungle":3.72,"neutralMinionsKilledTeamJungle":6.43,"overallPosition":38,"overallPositionChange":-2,"playPercent":4.88,"winPercent":46.58,"key":"Jax","role":"Top","title":"Jax"},
{"assists":6.32,"banRate":0.72,"deaths":6,"experience":63.9,"goldEarned":12161,"kills":5.92,"largestKillingSpree":2.83,"minionsKilled":181.9,"neutralMinionsKilledEnemyJungle":1.8,"neutralMinionsKilledTeamJungle":3.82,"overallPosition":40,"overallPositionChange":-5,"playPercent":1.32,"winPercent":47.36,"key":"Ekko","role":"Top","title":"Ekko"},
{"assists":5.58,"banRate":34.4,"deaths":5.85,"experience":27.96,"goldEarned":12319,"kills":6.39,"largestKillingSpree":3.07,"minionsKilled":186.6,"neutralMinionsKilledEnemyJungle":2.3,"neutralMinionsKilledTeamJungle":4.21,"overallPosition":10,"overallPositionChange":-1,"playPercent":10.08,"winPercent":50,"key":"Fiora","role":"Top","title":"Fiora"},
{"assists":5.53,"banRate":12.03,"deaths":6.3,"experience":41.87,"goldEarned":12264,"kills":6.78,"largestKillingSpree":3.18,"minionsKilled":185,"neutralMinionsKilledEnemyJungle":1.84,"neutralMinionsKilledTeamJungle":3.12,"overallPosition":13,"overallPositionChange":1,"playPercent":10.38,"winPercent":50.69,"key":"Darius","role":"Top","title":"Darius"},
{"assists":8.86,"banRate":64.69,"deaths":4.55,"experience":21.46,"goldEarned":11822,"kills":4.67,"largestKillingSpree":2.51,"minionsKilled":177.9,"neutralMinionsKilledEnemyJungle":1.27,"neutralMinionsKilledTeamJungle":2.83,"overallPosition":14,"overallPositionChange":-1,"playPercent":8.49,"winPercent":52.02,"key":"Malphite","role":"Top","title":"Malphite"},
{"assists":9.11,"banRate":1.19,"deaths":4.86,"experience":33.74,"goldEarned":11666,"kills":3.72,"largestKillingSpree":1.9,"minionsKilled":181.3,"neutralMinionsKilledEnemyJungle":1.23,"neutralMinionsKilledTeamJungle":2.96,"overallPosition":42,"overallPositionChange":-1,"playPercent":1.89,"winPercent":48.92,"key":"Lulu","role":"Top","title":"Lulu"},
{"assists":7.53,"banRate":19.57,"deaths":5.26,"experience":20.11,"goldEarned":12105,"kills":5.57,"largestKillingSpree":2.84,"minionsKilled":178.3,"neutralMinionsKilledEnemyJungle":2.08,"neutralMinionsKilledTeamJungle":3.32,"overallPosition":4,"overallPositionChange":2,"playPercent":8.17,"winPercent":52.21,"key":"Poppy","role":"Top","title":"Poppy"},
{"assists":5.89,"banRate":5.69,"deaths":6,"experience":29.4,"goldEarned":13003,"kills":6.35,"largestKillingSpree":3.08,"minionsKilled":211.8,"neutralMinionsKilledEnemyJungle":3.51,"neutralMinionsKilledTeamJungle":7.38,"overallPosition":2,"overallPositionChange":3,"playPercent":4.99,"winPercent":51.74,"key":"Graves","role":"Top","title":"Graves"},
{"assists":9,"banRate":6.97,"deaths":6.03,"experience":45.65,"goldEarned":12388,"kills":6.25,"largestKillingSpree":2.95,"minionsKilled":182.4,"neutralMinionsKilledEnemyJungle":2.35,"neutralMinionsKilledTeamJungle":5.08,"overallPosition":15,"overallPositionChange":22,"playPercent":4.76,"winPercent":50.05,"key":"JarvanIV","role":"Top","title":"Jarvan IV"},
{"assists":6.05,"banRate":3.5,"deaths":7.11,"experience":98.69,"goldEarned":13167,"kills":6.3,"largestKillingSpree":2.73,"minionsKilled":217.9,"neutralMinionsKilledEnemyJungle":4.84,"neutralMinionsKilledTeamJungle":7.49,"overallPosition":19,"overallPositionChange":-1,"playPercent":4.21,"winPercent":49.93,"key":"Yasuo","role":"Top","title":"Yasuo"},
{"assists":9.44,"banRate":38.36,"deaths":5.05,"experience":22.17,"goldEarned":11796,"kills":4,"largestKillingSpree":2.08,"minionsKilled":187.7,"neutralMinionsKilledEnemyJungle":1.22,"neutralMinionsKilledTeamJungle":2.36,"overallPosition":9,"overallPositionChange":-5,"playPercent":10.56,"winPercent":52.52,"key":"Nautilus","role":"Top","title":"Nautilus"},
{"assists":11.01,"banRate":0.05,"deaths":4.8,"experience":44.79,"goldEarned":11610,"kills":4.13,"largestKillingSpree":2.23,"minionsKilled":47.5,"neutralMinionsKilledEnemyJungle":12.57,"neutralMinionsKilledTeamJungle":57.58,"overallPosition":35,"overallPositionChange":4,"playPercent":0.66,"winPercent":52.61,"key":"Nunu","role":"Jungle","title":"Nunu"},
{"assists":9.99,"banRate":0.06,"deaths":4.61,"experience":60.76,"goldEarned":11645,"kills":4.66,"largestKillingSpree":2.48,"minionsKilled":41,"neutralMinionsKilledEnemyJungle":10.69,"neutralMinionsKilledTeamJungle":65.63,"overallPosition":39,"overallPositionChange":-9,"playPercent":1.28,"winPercent":52.23,"key":"Skarner","role":"Jungle","title":"Skarner"},
{"assists":7.13,"banRate":0.23,"deaths":5.36,"experience":33.72,"goldEarned":12493,"kills":6.25,"largestKillingSpree":3.14,"minionsKilled":56,"neutralMinionsKilledEnemyJungle":12.17,"neutralMinionsKilledTeamJungle":70.04,"overallPosition":34,"overallPositionChange":-13,"playPercent":0.57,"winPercent":48.91,"key":"Aatrox","role":"Jungle","title":"Aatrox"},
{"assists":9.3,"banRate":0.06,"deaths":5.64,"experience":157.97,"goldEarned":11981,"kills":5.78,"largestKillingSpree":2.87,"minionsKilled":44.7,"neutralMinionsKilledEnemyJungle":7.7,"neutralMinionsKilledTeamJungle":68.31,"overallPosition":31,"overallPositionChange":6,"playPercent":1.45,"winPercent":52.01,"key":"FiddleSticks","role":"Jungle","title":"Fiddlesticks"},
{"assists":9.57,"banRate":0.11,"deaths":5.48,"experience":33.14,"goldEarned":12310,"kills":6.29,"largestKillingSpree":3.18,"minionsKilled":52.3,"neutralMinionsKilledEnemyJungle":9.83,"neutralMinionsKilledTeamJungle":70.13,"overallPosition":30,"overallPositionChange":-13,"playPercent":1.23,"winPercent":48.52,"key":"Rumble","role":"Jungle","title":"Rumble"},
{"assists":11.46,"banRate":0.09,"deaths":5.46,"experience":56.48,"goldEarned":11356,"kills":4.49,"largestKillingSpree":2.2,"minionsKilled":48.9,"neutralMinionsKilledEnemyJungle":6.8,"neutralMinionsKilledTeamJungle":56.78,"overallPosition":44,"overallPositionChange":1,"playPercent":0.61,"winPercent":47.68,"key":"Maokai","role":"Jungle","title":"Maokai"},
{"assists":9.56,"banRate":0.06,"deaths":4.74,"experience":64.03,"goldEarned":11636,"kills":4.93,"largestKillingSpree":2.6,"minionsKilled":43.6,"neutralMinionsKilledEnemyJungle":11.4,"neutralMinionsKilledTeamJungle":64.09,"overallPosition":41,"overallPositionChange":-7,"playPercent":2.27,"winPercent":46.68,"key":"RekSai","role":"Jungle","title":"Rek'Sai"},
{"assists":8.43,"banRate":0.11,"deaths":5.45,"experience":46.4,"goldEarned":12051,"kills":6.25,"largestKillingSpree":3.01,"minionsKilled":37.6,"neutralMinionsKilledEnemyJungle":9.69,"neutralMinionsKilledTeamJungle":67.55,"overallPosition":23,"overallPositionChange":5,"playPercent":2.06,"winPercent":51.24,"key":"Warwick","role":"Jungle","title":"Warwick"},
{"assists":10.63,"banRate":0.05,"deaths":5.34,"experience":74.72,"goldEarned":11911,"kills":4.86,"largestKillingSpree":2.33,"minionsKilled":75.8,"neutralMinionsKilledEnemyJungle":5.9,"neutralMinionsKilledTeamJungle":52.27,"overallPosition":42,"overallPositionChange":0,"playPercent":0.31,"winPercent":48.2,"key":"Sion","role":"Jungle","title":"Sion"},
{"assists":7.99,"banRate":0.19,"deaths":5.91,"experience":30.47,"goldEarned":12123,"kills":6.05,"largestKillingSpree":2.79,"minionsKilled":57.9,"neutralMinionsKilledEnemyJungle":9.24,"neutralMinionsKilledTeamJungle":63.01,"overallPosition":45,"overallPositionChange":-2,"playPercent":0.47,"winPercent":45.69,"key":"Olaf","role":"Jungle","title":"Olaf"},
{"assists":9.03,"banRate":0.38,"deaths":5.81,"experience":99.11,"goldEarned":12190,"kills":7.63,"largestKillingSpree":3.68,"minionsKilled":44.1,"neutralMinionsKilledEnemyJungle":9.57,"neutralMinionsKilledTeamJungle":60.15,"overallPosition":18,"overallPositionChange":1,"playPercent":2.89,"winPercent":49.52,"key":"Evelynn","role":"Jungle","title":"Evelynn"},
{"assists":8.97,"banRate":0.35,"deaths":5.65,"experience":42.46,"goldEarned":12414,"kills":7.21,"largestKillingSpree":3.54,"minionsKilled":49.4,"neutralMinionsKilledEnemyJungle":9.08,"neutralMinionsKilledTeamJungle":66.8,"overallPosition":17,"overallPositionChange":24,"playPercent":2.47,"winPercent":48.02,"key":"Hecarim","role":"Jungle","title":"Hecarim"},
{"assists":7.4,"banRate":0.13,"deaths":5.63,"experience":38.29,"goldEarned":12846,"kills":7.6,"largestKillingSpree":3.65,"minionsKilled":54.7,"neutralMinionsKilledEnemyJungle":10.31,"neutralMinionsKilledTeamJungle":73.2,"overallPosition":14,"overallPositionChange":-2,"playPercent":3.25,"winPercent":50.69,"key":"Nocturne","role":"Jungle","title":"Nocturne"},
{"assists":5.92,"banRate":0.32,"deaths":5.88,"experience":85.83,"goldEarned":13142,"kills":6.19,"largestKillingSpree":2.84,"minionsKilled":77,"neutralMinionsKilledEnemyJungle":14.07,"neutralMinionsKilledTeamJungle":71.03,"overallPosition":40,"overallPositionChange":-8,"playPercent":0.54,"winPercent":47.41,"key":"Tryndamere","role":"Jungle","title":"Tryndamere"},
{"assists":6.23,"banRate":0.17,"deaths":5.99,"experience":41.2,"goldEarned":12501,"kills":8.34,"largestKillingSpree":3.86,"minionsKilled":44.7,"neutralMinionsKilledEnemyJungle":11.08,"neutralMinionsKilledTeamJungle":66.73,"overallPosition":33,"overallPositionChange":-10,"playPercent":3.61,"winPercent":46.43,"key":"Khazix","role":"Jungle","title":"Kha'Zix"},
{"assists":11.17,"banRate":0.38,"deaths":4.49,"experience":34.61,"goldEarned":11788,"kills":4.76,"largestKillingSpree":2.57,"minionsKilled":49.6,"neutralMinionsKilledEnemyJungle":8.35,"neutralMinionsKilledTeamJungle":65.39,"overallPosition":12,"overallPositionChange":26,"playPercent":4.12,"winPercent":52.17,"key":"Sejuani","role":"Jungle","title":"Sejuani"},
{"assists":7.63,"banRate":2.04,"deaths":6.09,"experience":25.33,"goldEarned":12096,"kills":6.85,"largestKillingSpree":3.22,"minionsKilled":48.3,"neutralMinionsKilledEnemyJungle":14.63,"neutralMinionsKilledTeamJungle":60.5,"overallPosition":16,"overallPositionChange":10,"playPercent":3.9,"winPercent":50.08,"key":"Kindred","role":"Jungle","title":"Kindred"},
{"assists":8.83,"banRate":19.69,"deaths":5.44,"experience":11.5,"goldEarned":11725,"kills":4.97,"largestKillingSpree":2.5,"minionsKilled":53.9,"neutralMinionsKilledEnemyJungle":9.17,"neutralMinionsKilledTeamJungle":61.22,"overallPosition":27,"overallPositionChange":-11,"playPercent":0.61,"winPercent":46.36,"key":"DrMundo","role":"Jungle","title":"Dr. Mundo"},
{"assists":7.19,"banRate":0.76,"deaths":5.61,"experience":54.99,"goldEarned":12724,"kills":6.19,"largestKillingSpree":2.94,"minionsKilled":74.3,"neutralMinionsKilledEnemyJungle":10.09,"neutralMinionsKilledTeamJungle":71.15,"overallPosition":36,"overallPositionChange":-9,"playPercent":0.56,"winPercent":49.49,"key":"Kayle","role":"Jungle","title":"Kayle"},
{"assists":11.09,"banRate":0.48,"deaths":4.46,"experience":40.08,"goldEarned":11596,"kills":5.07,"largestKillingSpree":2.8,"minionsKilled":44.8,"neutralMinionsKilledEnemyJungle":7.49,"neutralMinionsKilledTeamJungle":63.07,"overallPosition":21,"overallPositionChange":3,"playPercent":4.26,"winPercent":48.55,"key":"Zac","role":"Jungle","title":"Zac"},
{"assists":7.27,"banRate":0.75,"deaths":6.07,"experience":124.52,"goldEarned":12528,"kills":8.19,"largestKillingSpree":3.66,"minionsKilled":52.9,"neutralMinionsKilledEnemyJungle":11.37,"neutralMinionsKilledTeamJungle":52.89,"overallPosition":15,"overallPositionChange":-1,"playPercent":4.68,"winPercent":50.98,"key":"Shaco","role":"Jungle","title":"Shaco"},
{"assists":6.53,"banRate":3.08,"deaths":6.39,"experience":101.55,"goldEarned":12643,"kills":8.14,"largestKillingSpree":3.63,"minionsKilled":48,"neutralMinionsKilledEnemyJungle":10.75,"neutralMinionsKilledTeamJungle":68.62,"overallPosition":19,"overallPositionChange":6,"playPercent":4.26,"winPercent":47.71,"key":"Rengar","role":"Jungle","title":"Rengar"},
{"assists":8.16,"banRate":0.28,"deaths":5.47,"experience":90.71,"goldEarned":12186,"kills":6.9,"largestKillingSpree":3.34,"minionsKilled":53.2,"neutralMinionsKilledEnemyJungle":7.66,"neutralMinionsKilledTeamJungle":63.31,"overallPosition":28,"overallPositionChange":1,"playPercent":2.42,"winPercent":50.76,"key":"MonkeyKing","role":"Jungle","title":"Wukong"},
{"assists":7.64,"banRate":3.19,"deaths":5.91,"experience":58.9,"goldEarned":12831,"kills":7.57,"largestKillingSpree":3.64,"minionsKilled":60.2,"neutralMinionsKilledEnemyJungle":10.21,"neutralMinionsKilledTeamJungle":71.58,"overallPosition":11,"overallPositionChange":2,"playPercent":2.74,"winPercent":50.78,"key":"Diana","role":"Jungle","title":"Diana"},
{"assists":6.81,"banRate":14.4,"deaths":6.32,"experience":26.16,"goldEarned":12197,"kills":6.45,"largestKillingSpree":2.9,"minionsKilled":46.2,"neutralMinionsKilledEnemyJungle":11.35,"neutralMinionsKilledTeamJungle":66.09,"overallPosition":10,"overallPositionChange":-1,"playPercent":6.06,"winPercent":51.56,"key":"XinZhao","role":"Jungle","title":"Xin Zhao"},
{"assists":8.38,"banRate":1.88,"deaths":5.64,"experience":38.02,"goldEarned":11859,"kills":6.47,"largestKillingSpree":3.1,"minionsKilled":41.9,"neutralMinionsKilledEnemyJungle":9.44,"neutralMinionsKilledTeamJungle":60.38,"overallPosition":25,"overallPositionChange":-3,"playPercent":7.26,"winPercent":49.31,"key":"Elise","role":"Jungle","title":"Elise"},
{"assists":8.05,"banRate":5.09,"deaths":6.65,"experience":25.61,"goldEarned":12556,"kills":8.02,"largestKillingSpree":3.58,"minionsKilled":61.2,"neutralMinionsKilledEnemyJungle":9.1,"neutralMinionsKilledTeamJungle":57.83,"overallPosition":26,"overallPositionChange":-11,"playPercent":1.32,"winPercent":50.44,"key":"Quinn","role":"Jungle","title":"Quinn"},
{"assists":9.06,"banRate":0.99,"deaths":4.99,"experience":34.44,"goldEarned":11851,"kills":5.74,"largestKillingSpree":2.85,"minionsKilled":48.8,"neutralMinionsKilledEnemyJungle":9.18,"neutralMinionsKilledTeamJungle":59.49,"overallPosition":20,"overallPositionChange":-2,"playPercent":1.12,"winPercent":51.15,"key":"Trundle","role":"Jungle","title":"Trundle"},
{"assists":7.78,"banRate":3.03,"deaths":6.17,"experience":42.11,"goldEarned":11744,"kills":7.43,"largestKillingSpree":3.46,"minionsKilled":49.9,"neutralMinionsKilledEnemyJungle":6.13,"neutralMinionsKilledTeamJungle":51.62,"overallPosition":43,"overallPositionChange":-8,"playPercent":1.66,"winPercent":47.19,"key":"Pantheon","role":"Jungle","title":"Pantheon"},
{"assists":11.06,"banRate":1.54,"deaths":5.16,"experience":35.79,"goldEarned":11896,"kills":5.11,"largestKillingSpree":2.58,"minionsKilled":45.7,"neutralMinionsKilledEnemyJungle":8.08,"neutralMinionsKilledTeamJungle":67.09,"overallPosition":7,"overallPositionChange":0,"playPercent":7.31,"winPercent":52.78,"key":"Amumu","role":"Jungle","title":"Amumu"},
{"assists":9.13,"banRate":1.34,"deaths":4.84,"experience":41.25,"goldEarned":11957,"kills":6.62,"largestKillingSpree":3.49,"minionsKilled":45.8,"neutralMinionsKilledEnemyJungle":9.11,"neutralMinionsKilledTeamJungle":58.22,"overallPosition":6,"overallPositionChange":-1,"playPercent":4.76,"winPercent":53.37,"key":"Volibear","role":"Jungle","title":"Volibear"},
{"assists":11.36,"banRate":8.67,"deaths":5.17,"experience":30.48,"goldEarned":11293,"kills":4.3,"largestKillingSpree":2.12,"minionsKilled":44.6,"neutralMinionsKilledEnemyJungle":6.44,"neutralMinionsKilledTeamJungle":56.77,"overallPosition":22,"overallPositionChange":-2,"playPercent":3.36,"winPercent":50.58,"key":"Rammus","role":"Jungle","title":"Rammus"},
{"assists":8.11,"banRate":55.21,"deaths":4.49,"experience":38.85,"goldEarned":12520,"kills":5.28,"largestKillingSpree":2.89,"minionsKilled":66,"neutralMinionsKilledEnemyJungle":13.44,"neutralMinionsKilledTeamJungle":68.65,"overallPosition":3,"overallPositionChange":0,"playPercent":7.81,"winPercent":54.47,"key":"Udyr","role":"Jungle","title":"Udyr"},
{"assists":8.11,"banRate":1,"deaths":5.76,"experience":46.45,"goldEarned":12051,"kills":6.41,"largestKillingSpree":3.05,"minionsKilled":43.6,"neutralMinionsKilledEnemyJungle":9.57,"neutralMinionsKilledTeamJungle":67.45,"overallPosition":24,"overallPositionChange":16,"playPercent":8.06,"winPercent":50.12,"key":"Vi","role":"Jungle","title":"Vi"},
{"assists":7.98,"banRate":5.24,"deaths":5.41,"experience":53.27,"goldEarned":12443,"kills":6.85,"largestKillingSpree":3.44,"minionsKilled":47.2,"neutralMinionsKilledEnemyJungle":14.65,"neutralMinionsKilledTeamJungle":68.28,"overallPosition":5,"overallPositionChange":-1,"playPercent":8.11,"winPercent":49.92,"key":"Nidalee","role":"Jungle","title":"Nidalee"},
{"assists":6.04,"banRate":12.92,"deaths":6.13,"experience":26.93,"goldEarned":12717,"kills":6.9,"largestKillingSpree":3.12,"minionsKilled":55.8,"neutralMinionsKilledEnemyJungle":12.08,"neutralMinionsKilledTeamJungle":70,"overallPosition":13,"overallPositionChange":-2,"playPercent":3.85,"winPercent":51.86,"key":"Jax","role":"Jungle","title":"Jax"},
{"assists":9.03,"banRate":0.72,"deaths":5.46,"experience":42.67,"goldEarned":12263,"kills":6.93,"largestKillingSpree":3.41,"minionsKilled":55,"neutralMinionsKilledEnemyJungle":8.13,"neutralMinionsKilledTeamJungle":60.21,"overallPosition":9,"overallPositionChange":1,"playPercent":4.16,"winPercent":51.38,"key":"Ekko","role":"Jungle","title":"Ekko"},
{"assists":6.87,"banRate":4.82,"deaths":6.21,"experience":55.91,"goldEarned":12497,"kills":8.39,"largestKillingSpree":3.8,"minionsKilled":56,"neutralMinionsKilledEnemyJungle":8.42,"neutralMinionsKilledTeamJungle":60.04,"overallPosition":38,"overallPositionChange":-2,"playPercent":1.52,"winPercent":49,"key":"Fizz","role":"Jungle","title":"Fizz"},
{"assists":4.99,"banRate":40.08,"deaths":6.48,"experience":50.31,"goldEarned":13305,"kills":8.68,"largestKillingSpree":3.76,"minionsKilled":61.4,"neutralMinionsKilledEnemyJungle":12.45,"neutralMinionsKilledTeamJungle":75.91,"overallPosition":2,"overallPositionChange":0,"playPercent":11.42,"winPercent":53.03,"key":"MasterYi","role":"Jungle","title":"Master Yi"},
{"assists":9.32,"banRate":19.57,"deaths":5.26,"experience":19.05,"goldEarned":11630,"kills":5.63,"largestKillingSpree":2.84,"minionsKilled":46,"neutralMinionsKilledEnemyJungle":8.43,"neutralMinionsKilledTeamJungle":57.05,"overallPosition":32,"overallPositionChange":1,"playPercent":2,"winPercent":48.91,"key":"Poppy","role":"Jungle","title":"Poppy"},
{"assists":6.97,"banRate":16.61,"deaths":4.76,"experience":26.97,"goldEarned":13305,"kills":6.6,"largestKillingSpree":3.47,"minionsKilled":64.9,"neutralMinionsKilledEnemyJungle":16.72,"neutralMinionsKilledTeamJungle":79.48,"overallPosition":1,"overallPositionChange":0,"playPercent":11.93,"winPercent":54.79,"key":"Shyvana","role":"Jungle","title":"Shyvana"},
{"assists":7.45,"banRate":5.69,"deaths":5.38,"experience":29.67,"goldEarned":12873,"kills":7.06,"largestKillingSpree":3.46,"minionsKilled":73.1,"neutralMinionsKilledEnemyJungle":10.83,"neutralMinionsKilledTeamJungle":69.48,"overallPosition":4,"overallPositionChange":2,"playPercent":4.09,"winPercent":51.62,"key":"Graves","role":"Jungle","title":"Graves"},
{"assists":10.41,"banRate":6.5,"deaths":4.76,"experience":20.64,"goldEarned":11623,"kills":4.86,"largestKillingSpree":2.56,"minionsKilled":43.7,"neutralMinionsKilledEnemyJungle":9.73,"neutralMinionsKilledTeamJungle":64.06,"overallPosition":8,"overallPositionChange":0,"playPercent":12.92,"winPercent":50.59,"key":"Gragas","role":"Jungle","title":"Gragas"},
{"assists":11.38,"banRate":6.97,"deaths":5.77,"experience":30.98,"goldEarned":11739,"kills":5.66,"largestKillingSpree":2.7,"minionsKilled":46.4,"neutralMinionsKilledEnemyJungle":7.38,"neutralMinionsKilledTeamJungle":61.03,"overallPosition":29,"overallPositionChange":15,"playPercent":8.61,"winPercent":46.95,"key":"JarvanIV","role":"Jungle","title":"Jarvan IV"},
{"assists":8.94,"banRate":1.55,"deaths":5.85,"experience":73.41,"goldEarned":11686,"kills":6.4,"largestKillingSpree":3.06,"minionsKilled":39.7,"neutralMinionsKilledEnemyJungle":9.75,"neutralMinionsKilledTeamJungle":59,"overallPosition":37,"overallPositionChange":-6,"playPercent":22.82,"winPercent":45.84,"key":"LeeSin","role":"Jungle","title":"Lee Sin"},
{"assists":5.97,"banRate":0.08,"deaths":6.57,"experience":80.47,"goldEarned":11781,"kills":6.11,"largestKillingSpree":2.92,"minionsKilled":165.7,"neutralMinionsKilledEnemyJungle":3.6,"neutralMinionsKilledTeamJungle":10.09,"overallPosition":48,"overallPositionChange":0,"playPercent":0.18,"winPercent":46.78,"key":"Mordekaiser","role":"Middle","title":"Mordekaiser"},
{"assists":8.8,"banRate":0.03,"deaths":7.07,"experience":41.39,"goldEarned":13173,"kills":7.26,"largestKillingSpree":2.83,"minionsKilled":194,"neutralMinionsKilledEnemyJungle":2.03,"neutralMinionsKilledTeamJungle":12.7,"overallPosition":29,"overallPositionChange":-5,"playPercent":0.76,"winPercent":47.23,"key":"Karthus","role":"Middle","title":"Karthus"},
{"assists":10.05,"banRate":0.09,"deaths":5.53,"experience":20.87,"goldEarned":12226,"kills":5.43,"largestKillingSpree":2.67,"minionsKilled":186.9,"neutralMinionsKilledEnemyJungle":1.86,"neutralMinionsKilledTeamJungle":6.07,"overallPosition":27,"overallPositionChange":0,"playPercent":0.84,"winPercent":51.82,"key":"Galio","role":"Middle","title":"Galio"},
{"assists":6.26,"banRate":0.12,"deaths":6.69,"experience":50.38,"goldEarned":12191,"kills":6.61,"largestKillingSpree":2.93,"minionsKilled":171.9,"neutralMinionsKilledEnemyJungle":2.17,"neutralMinionsKilledTeamJungle":9.27,"overallPosition":46,"overallPositionChange":-2,"playPercent":1.14,"winPercent":45.79,"key":"Cassiopeia","role":"Middle","title":"Cassiopeia"},
{"assists":7.05,"banRate":0.11,"deaths":5.82,"experience":117.66,"goldEarned":11982,"kills":4.63,"largestKillingSpree":2.13,"minionsKilled":185.7,"neutralMinionsKilledEnemyJungle":1.39,"neutralMinionsKilledTeamJungle":4.18,"overallPosition":38,"overallPositionChange":-3,"playPercent":0.81,"winPercent":50.26,"key":"Heimerdinger","role":"Middle","title":"Heimerdinger"},
{"assists":7.02,"banRate":0.05,"deaths":5.93,"experience":60.19,"goldEarned":12627,"kills":7.64,"largestKillingSpree":3.65,"minionsKilled":179.2,"neutralMinionsKilledEnemyJungle":2.86,"neutralMinionsKilledTeamJungle":8.99,"overallPosition":26,"overallPositionChange":6,"playPercent":0.61,"winPercent":48.86,"key":"Jayce","role":"Middle","title":"Jayce"},
{"assists":6.88,"banRate":0.06,"deaths":6.03,"experience":33.47,"goldEarned":12490,"kills":7.01,"largestKillingSpree":3.28,"minionsKilled":184.5,"neutralMinionsKilledEnemyJungle":1.94,"neutralMinionsKilledTeamJungle":8.23,"overallPosition":41,"overallPositionChange":-4,"playPercent":1.58,"winPercent":44.85,"key":"Veigar","role":"Middle","title":"Veigar"},
{"assists":6.74,"banRate":0.25,"deaths":6.17,"experience":39.2,"goldEarned":11668,"kills":6.04,"largestKillingSpree":2.75,"minionsKilled":165.8,"neutralMinionsKilledEnemyJungle":1.54,"neutralMinionsKilledTeamJungle":5.82,"overallPosition":47,"overallPositionChange":0,"playPercent":0.33,"winPercent":46.75,"key":"Urgot","role":"Middle","title":"Urgot"},
{"assists":6.81,"banRate":0.16,"deaths":6.5,"experience":46.43,"goldEarned":12000,"kills":6.56,"largestKillingSpree":3.04,"minionsKilled":168.8,"neutralMinionsKilledEnemyJungle":2.39,"neutralMinionsKilledTeamJungle":8.21,"overallPosition":45,"overallPositionChange":0,"playPercent":0.6,"winPercent":47.13,"key":"Ryze","role":"Middle","title":"Ryze"},
{"assists":8.02,"banRate":0.02,"deaths":5.48,"experience":23.3,"goldEarned":12845,"kills":6.09,"largestKillingSpree":3.01,"minionsKilled":201.8,"neutralMinionsKilledEnemyJungle":2.12,"neutralMinionsKilledTeamJungle":9.29,"overallPosition":22,"overallPositionChange":0,"playPercent":1.8,"winPercent":48.76,"key":"Ziggs","role":"Middle","title":"Ziggs"},
{"assists":7.35,"banRate":0.08,"deaths":6.3,"experience":85.26,"goldEarned":11697,"kills":7.08,"largestKillingSpree":3.32,"minionsKilled":143,"neutralMinionsKilledEnemyJungle":1.68,"neutralMinionsKilledTeamJungle":7,"overallPosition":35,"overallPositionChange":8,"playPercent":1.28,"winPercent":49.63,"key":"Swain","role":"Middle","title":"Swain"},
{"assists":8.15,"banRate":0.03,"deaths":5.33,"experience":56.65,"goldEarned":12376,"kills":6.6,"largestKillingSpree":3.39,"minionsKilled":178.6,"neutralMinionsKilledEnemyJungle":1.48,"neutralMinionsKilledTeamJungle":6.57,"overallPosition":20,"overallPositionChange":-1,"playPercent":1.83,"winPercent":48.96,"key":"Xerath","role":"Middle","title":"Xerath"},
{"assists":7.48,"banRate":0.02,"deaths":5.78,"experience":18.68,"goldEarned":12546,"kills":6.4,"largestKillingSpree":3.14,"minionsKilled":191.9,"neutralMinionsKilledEnemyJungle":2.3,"neutralMinionsKilledTeamJungle":8.4,"overallPosition":30,"overallPositionChange":-2,"playPercent":0.66,"winPercent":48.4,"key":"Varus","role":"Middle","title":"Varus"},
{"assists":7.19,"banRate":0.05,"deaths":5.85,"experience":73.06,"goldEarned":11591,"kills":6.28,"largestKillingSpree":3.03,"minionsKilled":159.2,"neutralMinionsKilledEnemyJungle":1.18,"neutralMinionsKilledTeamJungle":2.82,"overallPosition":44,"overallPositionChange":-3,"playPercent":0.8,"winPercent":50.24,"key":"Kennen","role":"Middle","title":"Kennen"},
{"assists":6.89,"banRate":0.28,"deaths":6.15,"experience":65.14,"goldEarned":12571,"kills":6.39,"largestKillingSpree":3.05,"minionsKilled":191,"neutralMinionsKilledEnemyJungle":2.26,"neutralMinionsKilledTeamJungle":9.84,"overallPosition":18,"overallPositionChange":13,"playPercent":2.62,"winPercent":49.7,"key":"Azir","role":"Middle","title":"Azir"},
{"assists":6.4,"banRate":0.13,"deaths":5.85,"experience":26.1,"goldEarned":12033,"kills":8.01,"largestKillingSpree":3.86,"minionsKilled":157.7,"neutralMinionsKilledEnemyJungle":1.61,"neutralMinionsKilledTeamJungle":6.16,"overallPosition":39,"overallPositionChange":-5,"playPercent":2.52,"winPercent":45.82,"key":"Kassadin","role":"Middle","title":"Kassadin"},
{"assists":6.51,"banRate":0.07,"deaths":6.31,"experience":30.59,"goldEarned":12647,"kills":7.24,"largestKillingSpree":3.28,"minionsKilled":190.4,"neutralMinionsKilledEnemyJungle":1.98,"neutralMinionsKilledTeamJungle":8.11,"overallPosition":33,"overallPositionChange":-3,"playPercent":2.75,"winPercent":45.51,"key":"Syndra","role":"Middle","title":"Syndra"},
{"assists":8.52,"banRate":0.04,"deaths":6.35,"experience":83.3,"goldEarned":12673,"kills":6.49,"largestKillingSpree":2.89,"minionsKilled":171.1,"neutralMinionsKilledEnemyJungle":2.38,"neutralMinionsKilledTeamJungle":9.79,"overallPosition":28,"overallPositionChange":8,"playPercent":0.46,"winPercent":52.7,"key":"Zyra","role":"Middle","title":"Zyra"},
{"assists":10.08,"banRate":0.23,"deaths":4.45,"experience":31,"goldEarned":11928,"kills":4.46,"largestKillingSpree":2.44,"minionsKilled":180.8,"neutralMinionsKilledEnemyJungle":1.73,"neutralMinionsKilledTeamJungle":6.79,"overallPosition":25,"overallPositionChange":1,"playPercent":1.14,"winPercent":53.41,"key":"Zilean","role":"Middle","title":"Zilean"},
{"assists":6.77,"banRate":0.11,"deaths":5.93,"experience":39.07,"goldEarned":12389,"kills":6.31,"largestKillingSpree":3.08,"minionsKilled":191.3,"neutralMinionsKilledEnemyJungle":1.91,"neutralMinionsKilledTeamJungle":8.79,"overallPosition":31,"overallPositionChange":-6,"playPercent":3.68,"winPercent":44.65,"key":"Viktor","role":"Middle","title":"Viktor"},
{"assists":9.05,"banRate":0.04,"deaths":5.26,"experience":34.38,"goldEarned":11952,"kills":5.47,"largestKillingSpree":2.81,"minionsKilled":166.7,"neutralMinionsKilledEnemyJungle":1.69,"neutralMinionsKilledTeamJungle":5.83,"overallPosition":40,"overallPositionChange":-1,"playPercent":1.27,"winPercent":49.91,"key":"Karma","role":"Middle","title":"Karma"},
{"assists":6.6,"banRate":1.03,"deaths":7.13,"experience":51.18,"goldEarned":12538,"kills":8.52,"largestKillingSpree":3.59,"minionsKilled":164.5,"neutralMinionsKilledEnemyJungle":2.34,"neutralMinionsKilledTeamJungle":6.96,"overallPosition":23,"overallPositionChange":-15,"playPercent":3.81,"winPercent":49.53,"key":"Talon","role":"Middle","title":"Talon"},
{"assists":6.84,"banRate":0.17,"deaths":6.5,"experience":50.46,"goldEarned":12108,"kills":5.89,"largestKillingSpree":2.62,"minionsKilled":184.1,"neutralMinionsKilledEnemyJungle":2.87,"neutralMinionsKilledTeamJungle":6.84,"overallPosition":43,"overallPositionChange":3,"playPercent":1.06,"winPercent":47.21,"key":"Vladimir","role":"Middle","title":"Vladimir"},
{"assists":7.16,"banRate":0.41,"deaths":4.62,"experience":76.01,"goldEarned":12626,"kills":6.52,"largestKillingSpree":3.62,"minionsKilled":185.5,"neutralMinionsKilledEnemyJungle":2.63,"neutralMinionsKilledTeamJungle":10.51,"overallPosition":6,"overallPositionChange":-1,"playPercent":4.04,"winPercent":51.41,"key":"Anivia","role":"Middle","title":"Anivia"},
{"assists":6.35,"banRate":0.5,"deaths":5.36,"experience":66.81,"goldEarned":12603,"kills":7,"largestKillingSpree":3.63,"minionsKilled":183.8,"neutralMinionsKilledEnemyJungle":3.42,"neutralMinionsKilledTeamJungle":10.49,"overallPosition":21,"overallPositionChange":-4,"playPercent":1.39,"winPercent":49.8,"key":"Chogath","role":"Middle","title":"Cho'Gath"},
{"assists":7.2,"banRate":0.51,"deaths":5.57,"experience":64.02,"goldEarned":12409,"kills":6.16,"largestKillingSpree":2.99,"minionsKilled":182.5,"neutralMinionsKilledEnemyJungle":2.25,"neutralMinionsKilledTeamJungle":7.87,"overallPosition":10,"overallPositionChange":3,"playPercent":4.12,"winPercent":52.55,"key":"Malzahar","role":"Middle","title":"Malzahar"},
{"assists":5.84,"banRate":2.04,"deaths":7.27,"experience":64.23,"goldEarned":12234,"kills":9.52,"largestKillingSpree":3.95,"minionsKilled":143.5,"neutralMinionsKilledEnemyJungle":2.88,"neutralMinionsKilledTeamJungle":6.43,"overallPosition":37,"overallPositionChange":1,"playPercent":1.34,"winPercent":47.98,"key":"Akali","role":"Middle","title":"Akali"},
{"assists":6.92,"banRate":0.76,"deaths":5.91,"experience":40.96,"goldEarned":12344,"kills":6.12,"largestKillingSpree":2.92,"minionsKilled":185.7,"neutralMinionsKilledEnemyJungle":3.31,"neutralMinionsKilledTeamJungle":11.05,"overallPosition":24,"overallPositionChange":-1,"playPercent":1.99,"winPercent":52.29,"key":"Kayle","role":"Middle","title":"Kayle"},
{"assists":7.82,"banRate":0.78,"deaths":6.2,"experience":40.88,"goldEarned":12119,"kills":6.96,"largestKillingSpree":3.18,"minionsKilled":156.8,"neutralMinionsKilledEnemyJungle":1.55,"neutralMinionsKilledTeamJungle":6.72,"overallPosition":19,"overallPositionChange":-3,"playPercent":2.7,"winPercent":49.78,"key":"Brand","role":"Middle","title":"Brand"},
{"assists":8.86,"banRate":0.05,"deaths":5.37,"experience":29.77,"goldEarned":12188,"kills":5.48,"largestKillingSpree":2.81,"minionsKilled":187.8,"neutralMinionsKilledEnemyJungle":2.16,"neutralMinionsKilledTeamJungle":10.24,"overallPosition":36,"overallPositionChange":4,"playPercent":6.29,"winPercent":45.83,"key":"Orianna","role":"Middle","title":"Orianna"},
{"assists":6.66,"banRate":1,"deaths":6.61,"experience":54.97,"goldEarned":12554,"kills":9.19,"largestKillingSpree":4.2,"minionsKilled":171.5,"neutralMinionsKilledEnemyJungle":1.27,"neutralMinionsKilledTeamJungle":3.1,"overallPosition":9,"overallPositionChange":3,"playPercent":6.01,"winPercent":50.32,"key":"Katarina","role":"Middle","title":"Katarina"},
{"assists":8.18,"banRate":0.56,"deaths":5.87,"experience":24.3,"goldEarned":12074,"kills":5.41,"largestKillingSpree":2.57,"minionsKilled":189.1,"neutralMinionsKilledEnemyJungle":1.75,"neutralMinionsKilledTeamJungle":6.78,"overallPosition":34,"overallPositionChange":-1,"playPercent":4.53,"winPercent":46.73,"key":"Lissandra","role":"Middle","title":"Lissandra"},
{"assists":6.3,"banRate":3.19,"deaths":6.48,"experience":64.73,"goldEarned":12478,"kills":7.84,"largestKillingSpree":3.59,"minionsKilled":163.5,"neutralMinionsKilledEnemyJungle":3.51,"neutralMinionsKilledTeamJungle":11.84,"overallPosition":17,"overallPositionChange":3,"playPercent":4.25,"winPercent":50.03,"key":"Diana","role":"Middle","title":"Diana"},
{"assists":7.19,"banRate":1.19,"deaths":6.07,"experience":59.74,"goldEarned":12059,"kills":7.17,"largestKillingSpree":3.35,"minionsKilled":165.7,"neutralMinionsKilledEnemyJungle":1.36,"neutralMinionsKilledTeamJungle":4.94,"overallPosition":12,"overallPositionChange":2,"playPercent":5.71,"winPercent":50.82,"key":"Annie","role":"Middle","title":"Annie"},
{"assists":8.24,"banRate":0.32,"deaths":6.25,"experience":47.48,"goldEarned":12841,"kills":6.39,"largestKillingSpree":3.03,"minionsKilled":172.3,"neutralMinionsKilledEnemyJungle":2.04,"neutralMinionsKilledTeamJungle":8.43,"overallPosition":14,"overallPositionChange":-3,"playPercent":7.49,"winPercent":50.48,"key":"TwistedFate","role":"Middle","title":"Twisted Fate"},
{"assists":6.71,"banRate":0.72,"deaths":6.65,"experience":37.6,"goldEarned":12113,"kills":7.4,"largestKillingSpree":3.34,"minionsKilled":157.9,"neutralMinionsKilledEnemyJungle":1.89,"neutralMinionsKilledTeamJungle":7.02,"overallPosition":42,"overallPositionChange":0,"playPercent":3.5,"winPercent":46.26,"key":"Ekko","role":"Middle","title":"Ekko"},
{"assists":5.86,"banRate":4.82,"deaths":6.56,"experience":54.16,"goldEarned":12255,"kills":9.15,"largestKillingSpree":4.01,"minionsKilled":145.8,"neutralMinionsKilledEnemyJungle":1.87,"neutralMinionsKilledTeamJungle":7,"overallPosition":15,"overallPositionChange":0,"playPercent":8.02,"winPercent":50.51,"key":"Fizz","role":"Middle","title":"Fizz"},
{"assists":6.92,"banRate":2.72,"deaths":5.72,"experience":22.65,"goldEarned":12906,"kills":7.66,"largestKillingSpree":3.74,"minionsKilled":190.9,"neutralMinionsKilledEnemyJungle":3.18,"neutralMinionsKilledTeamJungle":11.08,"overallPosition":2,"overallPositionChange":0,"playPercent":5.09,"winPercent":51.19,"key":"Corki","role":"Middle","title":"Corki"},
{"assists":7.83,"banRate":1.18,"deaths":5.34,"experience":57.96,"goldEarned":12371,"kills":6.89,"largestKillingSpree":3.44,"minionsKilled":176.3,"neutralMinionsKilledEnemyJungle":1.84,"neutralMinionsKilledTeamJungle":6.41,"overallPosition":4,"overallPositionChange":0,"playPercent":14.1,"winPercent":52.85,"key":"Ahri","role":"Middle","title":"Ahri"},
{"assists":6.05,"banRate":7.18,"deaths":5.43,"experience":39.22,"goldEarned":12041,"kills":8.19,"largestKillingSpree":4.07,"minionsKilled":152.8,"neutralMinionsKilledEnemyJungle":1.54,"neutralMinionsKilledTeamJungle":6,"overallPosition":16,"overallPositionChange":2,"playPercent":14.41,"winPercent":46.39,"key":"Leblanc","role":"Middle","title":"LeBlanc"},
{"assists":6.63,"banRate":3.5,"deaths":7.34,"experience":84.97,"goldEarned":12928,"kills":7.08,"largestKillingSpree":3.02,"minionsKilled":199.8,"neutralMinionsKilledEnemyJungle":5.11,"neutralMinionsKilledTeamJungle":9.95,"overallPosition":13,"overallPositionChange":8,"playPercent":10.98,"winPercent":49.96,"key":"Yasuo","role":"Middle","title":"Yasuo"},
{"assists":9.69,"banRate":2.25,"deaths":4.91,"experience":52.97,"goldEarned":12291,"kills":5.52,"largestKillingSpree":2.87,"minionsKilled":172.8,"neutralMinionsKilledEnemyJungle":1.42,"neutralMinionsKilledTeamJungle":4.98,"overallPosition":11,"overallPositionChange":-1,"playPercent":3.25,"winPercent":52.67,"key":"Morgana","role":"Middle","title":"Morgana"},
{"assists":9.41,"banRate":3.26,"deaths":4.87,"experience":36.29,"goldEarned":12334,"kills":6.65,"largestKillingSpree":3.57,"minionsKilled":172.9,"neutralMinionsKilledEnemyJungle":1.53,"neutralMinionsKilledTeamJungle":6.01,"overallPosition":1,"overallPositionChange":0,"playPercent":19.23,"winPercent":53.6,"key":"Lux","role":"Middle","title":"Lux"},
{"assists":7.37,"banRate":0.25,"deaths":5.95,"experience":27.41,"goldEarned":12171,"kills":6.17,"largestKillingSpree":2.83,"minionsKilled":178,"neutralMinionsKilledEnemyJungle":1.44,"neutralMinionsKilledTeamJungle":5.46,"overallPosition":19,"overallPositionChange":0,"playPercent":0.43,"winPercent":46.4,"key":"Urgot","role":"ADC","title":"Urgot"},
{"assists":8.34,"banRate":0.08,"deaths":5.38,"experience":66.2,"goldEarned":12719,"kills":6.76,"largestKillingSpree":3.44,"minionsKilled":183.7,"neutralMinionsKilledEnemyJungle":1.77,"neutralMinionsKilledTeamJungle":6.69,"overallPosition":5,"overallPositionChange":1,"playPercent":2.6,"winPercent":52.7,"key":"Velkoz","role":"Middle","title":"Vel'Koz"},
{"assists":7.82,"banRate":2.36,"deaths":5.24,"experience":40.14,"goldEarned":13855,"kills":6.35,"largestKillingSpree":3.14,"minionsKilled":207.8,"neutralMinionsKilledEnemyJungle":2.8,"neutralMinionsKilledTeamJungle":9.89,"overallPosition":8,"overallPositionChange":-1,"playPercent":1.12,"winPercent":49.35,"key":"Gangplank","role":"Middle","title":"Gangplank"},
{"assists":7.23,"banRate":5.09,"deaths":6.54,"experience":35.58,"goldEarned":12693,"kills":8.69,"largestKillingSpree":3.96,"minionsKilled":167.4,"neutralMinionsKilledEnemyJungle":3.18,"neutralMinionsKilledTeamJungle":8.31,"overallPosition":7,"overallPositionChange":2,"playPercent":0.99,"winPercent":54.55,"key":"Quinn","role":"Middle","title":"Quinn"},
{"assists":9.67,"banRate":1.19,"deaths":4.88,"experience":27.88,"goldEarned":11660,"kills":4.48,"largestKillingSpree":2.33,"minionsKilled":168.5,"neutralMinionsKilledEnemyJungle":1.42,"neutralMinionsKilledTeamJungle":5.43,"overallPosition":32,"overallPositionChange":-3,"playPercent":3.99,"winPercent":49.53,"key":"Lulu","role":"Middle","title":"Lulu"},
{"assists":5.62,"banRate":48.14,"deaths":6.14,"experience":57.1,"goldEarned":12927,"kills":8.66,"largestKillingSpree":3.93,"minionsKilled":185.3,"neutralMinionsKilledEnemyJungle":2.59,"neutralMinionsKilledTeamJungle":6.21,"overallPosition":3,"overallPositionChange":0,"playPercent":15.18,"winPercent":52.1,"key":"Zed","role":"Middle","title":"Zed"},
{"assists":6.64,"banRate":0.07,"deaths":6.12,"experience":31.16,"goldEarned":13046,"kills":8.42,"largestKillingSpree":3.83,"minionsKilled":183.8,"neutralMinionsKilledEnemyJungle":2.85,"neutralMinionsKilledTeamJungle":8.85,"overallPosition":8,"overallPositionChange":1,"playPercent":3.49,"winPercent":52.23,"key":"Twitch","role":"ADC","title":"Twitch"},
{"assists":6.97,"banRate":35.68,"deaths":6.59,"experience":10.02,"goldEarned":13091,"kills":6.99,"largestKillingSpree":3.04,"minionsKilled":196.5,"neutralMinionsKilledEnemyJungle":2.6,"neutralMinionsKilledTeamJungle":10.76,"overallPosition":15,"overallPositionChange":-13,"playPercent":4.26,"winPercent":47.26,"key":"KogMaw","role":"ADC","title":"Kog'Maw"},
{"assists":8.33,"banRate":0.08,"deaths":6.05,"experience":30.66,"goldEarned":12924,"kills":6.72,"largestKillingSpree":3.15,"minionsKilled":195.9,"neutralMinionsKilledEnemyJungle":2.23,"neutralMinionsKilledTeamJungle":6.68,"overallPosition":12,"overallPositionChange":-2,"playPercent":4.63,"winPercent":51.47,"key":"MissFortune","role":"ADC","title":"Miss Fortune"},
{"assists":6.19,"banRate":0.06,"deaths":5.46,"experience":30.46,"goldEarned":12810,"kills":7.09,"largestKillingSpree":3.41,"minionsKilled":194.1,"neutralMinionsKilledEnemyJungle":2.6,"neutralMinionsKilledTeamJungle":8.22,"overallPosition":18,"overallPositionChange":0,"playPercent":6.59,"winPercent":48.14,"key":"Tristana","role":"ADC","title":"Tristana"},
{"assists":8.58,"banRate":0.1,"deaths":5.35,"experience":26.54,"goldEarned":13329,"kills":5.83,"largestKillingSpree":2.87,"minionsKilled":225.8,"neutralMinionsKilledEnemyJungle":2.61,"neutralMinionsKilledTeamJungle":8.15,"overallPosition":5,"overallPositionChange":1,"playPercent":7.69,"winPercent":52.95,"key":"Sivir","role":"ADC","title":"Sivir"},
{"assists":7.35,"banRate":0.09,"deaths":5.89,"experience":82.27,"goldEarned":12910,"kills":7.04,"largestKillingSpree":3.41,"minionsKilled":196.2,"neutralMinionsKilledEnemyJungle":2.75,"neutralMinionsKilledTeamJungle":8.74,"overallPosition":13,"overallPositionChange":1,"playPercent":8.81,"winPercent":51.44,"key":"Jinx","role":"ADC","title":"Jinx"},
{"assists":6.67,"banRate":1.29,"deaths":6.07,"experience":51.12,"goldEarned":12742,"kills":7.43,"largestKillingSpree":3.5,"minionsKilled":188.3,"neutralMinionsKilledEnemyJungle":3.7,"neutralMinionsKilledTeamJungle":9.36,"overallPosition":11,"overallPositionChange":0,"playPercent":11.49,"winPercent":51.75,"key":"Kalista","role":"ADC","title":"Kalista"},
{"assists":7.09,"banRate":0.44,"deaths":5.81,"experience":35.6,"goldEarned":12769,"kills":6,"largestKillingSpree":2.89,"minionsKilled":202.3,"neutralMinionsKilledEnemyJungle":2.39,"neutralMinionsKilledTeamJungle":7.94,"overallPosition":9,"overallPositionChange":4,"playPercent":15.84,"winPercent":49.45,"key":"Caitlyn","role":"ADC","title":"Caitlyn"},
{"assists":8.36,"banRate":4.5,"deaths":5.48,"experience":17.48,"goldEarned":12970,"kills":7.57,"largestKillingSpree":3.73,"minionsKilled":191.3,"neutralMinionsKilledEnemyJungle":2.08,"neutralMinionsKilledTeamJungle":6.54,"overallPosition":1,"overallPositionChange":2,"playPercent":19.53,"winPercent":52.11,"key":"Jhin","role":"ADC","title":"Jhin"},
{"assists":8.18,"banRate":2.57,"deaths":5.01,"experience":34.56,"goldEarned":12867,"kills":6.98,"largestKillingSpree":3.57,"minionsKilled":193,"neutralMinionsKilledEnemyJungle":2.42,"neutralMinionsKilledTeamJungle":6.95,"overallPosition":4,"overallPositionChange":1,"playPercent":28.53,"winPercent":50.54,"key":"Ezreal","role":"ADC","title":"Ezreal"},
{"assists":11.99,"banRate":0.05,"deaths":6.46,"experience":19.55,"goldEarned":9667,"kills":2.08,"largestKillingSpree":0.75,"minionsKilled":43.8,"neutralMinionsKilledEnemyJungle":1.36,"neutralMinionsKilledTeamJungle":3.8,"overallPosition":25,"overallPositionChange":0,"playPercent":0.16,"winPercent":46.42,"key":"Nunu","role":"Support","title":"Nunu"},
{"assists":12.98,"banRate":0.09,"deaths":5.98,"experience":17.14,"goldEarned":10194,"kills":2.29,"largestKillingSpree":0.9,"minionsKilled":53.2,"neutralMinionsKilledEnemyJungle":0.52,"neutralMinionsKilledTeamJungle":1.16,"overallPosition":23,"overallPositionChange":1,"playPercent":0.14,"winPercent":49.78,"key":"Galio","role":"Support","title":"Galio"},
{"assists":11.31,"banRate":0.04,"deaths":6.98,"experience":90.11,"goldEarned":11324,"kills":3.81,"largestKillingSpree":1.46,"minionsKilled":45.7,"neutralMinionsKilledEnemyJungle":1.12,"neutralMinionsKilledTeamJungle":2.51,"overallPosition":15,"overallPositionChange":0,"playPercent":2.66,"winPercent":52.01,"key":"Zyra","role":"Support","title":"Zyra"},
{"assists":12.57,"banRate":0.04,"deaths":5.98,"experience":39.97,"goldEarned":10485,"kills":2.46,"largestKillingSpree":0.99,"minionsKilled":36.4,"neutralMinionsKilledEnemyJungle":0.65,"neutralMinionsKilledTeamJungle":1.03,"overallPosition":22,"overallPositionChange":-2,"playPercent":2.16,"winPercent":47.55,"key":"Karma","role":"Support","title":"Karma"},
{"assists":10.52,"banRate":0.08,"deaths":6.18,"experience":84.19,"goldEarned":11248,"kills":4.24,"largestKillingSpree":1.92,"minionsKilled":48.8,"neutralMinionsKilledEnemyJungle":0.89,"neutralMinionsKilledTeamJungle":1.65,"overallPosition":19,"overallPositionChange":-3,"playPercent":1.68,"winPercent":51.14,"key":"Velkoz","role":"Support","title":"Vel'Koz"},
{"assists":10.72,"banRate":35.03,"deaths":5.47,"experience":16.3,"goldEarned":9628,"kills":1.9,"largestKillingSpree":0.74,"minionsKilled":50.4,"neutralMinionsKilledEnemyJungle":0.58,"neutralMinionsKilledTeamJungle":0.72,"overallPosition":20,"overallPositionChange":1,"playPercent":2.6,"winPercent":45.58,"key":"TahmKench","role":"Support","title":"Tahm Kench"},
{"assists":14.71,"banRate":0.03,"deaths":4.76,"experience":78.09,"goldEarned":9712,"kills":1.51,"largestKillingSpree":0.57,"minionsKilled":15.2,"neutralMinionsKilledEnemyJungle":0.13,"neutralMinionsKilledTeamJungle":0.14,"overallPosition":5,"overallPositionChange":1,"playPercent":6.81,"winPercent":51.69,"key":"Nami","role":"Support","title":"Nami"},
{"assists":12.82,"banRate":0.99,"deaths":4.63,"experience":29.34,"goldEarned":9683,"kills":1.89,"largestKillingSpree":0.79,"minionsKilled":51.6,"neutralMinionsKilledEnemyJungle":0.38,"neutralMinionsKilledTeamJungle":0.79,"overallPosition":11,"overallPositionChange":0,"playPercent":1.04,"winPercent":49.27,"key":"Trundle","role":"Support","title":"Trundle"},
{"assists":14.33,"banRate":15.43,"deaths":5.08,"experience":45.1,"goldEarned":9173,"kills":0.64,"largestKillingSpree":0.14,"minionsKilled":16,"neutralMinionsKilledEnemyJungle":0.14,"neutralMinionsKilledTeamJungle":0.22,"overallPosition":4,"overallPositionChange":-1,"playPercent":9.34,"winPercent":53.49,"key":"Soraka","role":"Support","title":"Soraka"},
{"assists":13.1,"banRate":1.19,"deaths":5.36,"experience":40.61,"goldEarned":9848,"kills":1.66,"largestKillingSpree":0.62,"minionsKilled":26.9,"neutralMinionsKilledEnemyJungle":0.31,"neutralMinionsKilledTeamJungle":0.4,"overallPosition":18,"overallPositionChange":-1,"playPercent":4.83,"winPercent":46.51,"key":"Lulu","role":"Support","title":"Lulu"},
{"assists":13.29,"banRate":0.51,"deaths":5.81,"experience":71.75,"goldEarned":9738,"kills":1.84,"largestKillingSpree":0.68,"minionsKilled":47.3,"neutralMinionsKilledEnemyJungle":0.23,"neutralMinionsKilledTeamJungle":0.25,"overallPosition":16,"overallPositionChange":3,"playPercent":10.32,"winPercent":50.56,"key":"Leona","role":"Support","title":"Leona"},
{"assists":12.52,"banRate":2.41,"deaths":5.67,"experience":50.8,"goldEarned":9761,"kills":2.27,"largestKillingSpree":0.9,"minionsKilled":42.7,"neutralMinionsKilledEnemyJungle":0.38,"neutralMinionsKilledTeamJungle":0.32,"overallPosition":7,"overallPositionChange":-2,"playPercent":13,"winPercent":52.51,"key":"Blitzcrank","role":"Support","title":"Blitzcrank"},
{"assists":13.48,"banRate":2.25,"deaths":5.82,"experience":48.18,"goldEarned":10480,"kills":2.35,"largestKillingSpree":0.95,"minionsKilled":30.6,"neutralMinionsKilledEnemyJungle":0.44,"neutralMinionsKilledTeamJungle":0.53,"overallPosition":2,"overallPositionChange":2,"playPercent":14.33,"winPercent":49.83,"key":"Morgana","role":"Support","title":"Morgana"},
{"assists":13.5,"banRate":3.56,"deaths":4.84,"experience":32.33,"goldEarned":9343,"kills":1.36,"largestKillingSpree":0.47,"minionsKilled":43.4,"neutralMinionsKilledEnemyJungle":0.2,"neutralMinionsKilledTeamJungle":0.25,"overallPosition":3,"overallPositionChange":-1,"playPercent":17.43,"winPercent":49.74,"key":"Alistar","role":"Support","title":"Alistar"},
{"assists":14.5,"banRate":1.7,"deaths":4.11,"experience":81.27,"goldEarned":9355,"kills":0.82,"largestKillingSpree":0.24,"minionsKilled":15.5,"neutralMinionsKilledEnemyJungle":0.11,"neutralMinionsKilledTeamJungle":0.09,"overallPosition":1,"overallPositionChange":0,"playPercent":21.65,"winPercent":54.44,"key":"Janna","role":"Support","title":"Janna"},
{"assists":8.16,"banRate":0.02,"deaths":6.25,"experience":29.03,"goldEarned":13168,"kills":7.23,"largestKillingSpree":3.33,"minionsKilled":196.8,"neutralMinionsKilledEnemyJungle":2.57,"neutralMinionsKilledTeamJungle":7.58,"overallPosition":14,"overallPositionChange":-2,"playPercent":1.44,"winPercent":49.25,"key":"Varus","role":"ADC","title":"Varus"},
{"assists":8.44,"banRate":0.21,"deaths":6.02,"experience":29.53,"goldEarned":12721,"kills":6.41,"largestKillingSpree":3.01,"minionsKilled":190.2,"neutralMinionsKilledEnemyJungle":2.56,"neutralMinionsKilledTeamJungle":7.97,"overallPosition":16,"overallPositionChange":0,"playPercent":3.9,"winPercent":52.33,"key":"Ashe","role":"ADC","title":"Ashe"},
{"assists":6.45,"banRate":0.11,"deaths":6.15,"experience":94.31,"goldEarned":13701,"kills":7.2,"largestKillingSpree":3.3,"minionsKilled":189.9,"neutralMinionsKilledEnemyJungle":2.87,"neutralMinionsKilledTeamJungle":8.31,"overallPosition":17,"overallPositionChange":0,"playPercent":5.15,"winPercent":49.85,"key":"Draven","role":"ADC","title":"Draven"},
{"assists":7.85,"banRate":5.09,"deaths":6.56,"experience":42.61,"goldEarned":13124,"kills":8.18,"largestKillingSpree":3.63,"minionsKilled":182.8,"neutralMinionsKilledEnemyJungle":2.96,"neutralMinionsKilledTeamJungle":6.96,"overallPosition":6,"overallPositionChange":1,"playPercent":0.86,"winPercent":53.4,"key":"Quinn","role":"ADC","title":"Quinn"},
{"assists":7.17,"banRate":5.69,"deaths":5.52,"experience":38.92,"goldEarned":13304,"kills":7.31,"largestKillingSpree":3.6,"minionsKilled":203.9,"neutralMinionsKilledEnemyJungle":3.33,"neutralMinionsKilledTeamJungle":9.35,"overallPosition":3,"overallPositionChange":-2,"playPercent":3.47,"winPercent":53.77,"key":"Graves","role":"ADC","title":"Graves"},
{"assists":6.82,"banRate":1.38,"deaths":5.64,"experience":51.61,"goldEarned":13296,"kills":7.11,"largestKillingSpree":3.41,"minionsKilled":212.2,"neutralMinionsKilledEnemyJungle":2.98,"neutralMinionsKilledTeamJungle":9.32,"overallPosition":7,"overallPositionChange":1,"playPercent":36.53,"winPercent":48.94,"key":"Lucian","role":"ADC","title":"Lucian"},
{"assists":12.87,"banRate":0.23,"deaths":5.04,"experience":59.73,"goldEarned":10556,"kills":2.46,"largestKillingSpree":1.11,"minionsKilled":43.8,"neutralMinionsKilledEnemyJungle":0.66,"neutralMinionsKilledTeamJungle":1.08,"overallPosition":8,"overallPositionChange":4,"playPercent":2.25,"winPercent":52.26,"key":"Zilean","role":"Support","title":"Zilean"},
{"assists":10.53,"banRate":0.78,"deaths":7.24,"experience":51.5,"goldEarned":11263,"kills":4.3,"largestKillingSpree":1.73,"minionsKilled":41.2,"neutralMinionsKilledEnemyJungle":0.97,"neutralMinionsKilledTeamJungle":2.06,"overallPosition":17,"overallPositionChange":1,"playPercent":2.11,"winPercent":51.29,"key":"Brand","role":"Support","title":"Brand"},
{"assists":13.27,"banRate":0.42,"deaths":5.78,"experience":43.85,"goldEarned":10123,"kills":2.52,"largestKillingSpree":1.04,"minionsKilled":23.5,"neutralMinionsKilledEnemyJungle":0.34,"neutralMinionsKilledTeamJungle":0.35,"overallPosition":9,"overallPositionChange":1,"playPercent":10.48,"winPercent":48.84,"key":"Bard","role":"Support","title":"Bard"},
{"assists":13.96,"banRate":1.69,"deaths":5.08,"experience":46.26,"goldEarned":9441,"kills":1.35,"largestKillingSpree":0.47,"minionsKilled":43.7,"neutralMinionsKilledEnemyJungle":0.2,"neutralMinionsKilledTeamJungle":0.15,"overallPosition":6,"overallPositionChange":1,"playPercent":16.3,"winPercent":50.18,"key":"Braum","role":"Support","title":"Braum"},
{"assists":13.71,"banRate":0.56,"deaths":5.63,"experience":97.67,"goldEarned":9258,"kills":1.82,"largestKillingSpree":0.67,"minionsKilled":36.4,"neutralMinionsKilledEnemyJungle":0.2,"neutralMinionsKilledTeamJungle":0.19,"overallPosition":12,"overallPositionChange":1,"playPercent":27.86,"winPercent":48.52,"key":"Thresh","role":"Support","title":"Thresh"},
{"assists":7.69,"banRate":2.72,"deaths":5.45,"experience":25.79,"goldEarned":13131,"kills":7.4,"largestKillingSpree":3.67,"minionsKilled":196.7,"neutralMinionsKilledEnemyJungle":2.74,"neutralMinionsKilledTeamJungle":8.71,"overallPosition":2,"overallPositionChange":2,"playPercent":6.4,"winPercent":51.72,"key":"Corki","role":"ADC","title":"Corki"},
{"assists":5.83,"banRate":2.76,"deaths":6.13,"experience":91.96,"goldEarned":12771,"kills":7.5,"largestKillingSpree":3.44,"minionsKilled":187.6,"neutralMinionsKilledEnemyJungle":2.56,"neutralMinionsKilledTeamJungle":8.07,"overallPosition":10,"overallPositionChange":5,"playPercent":21.2,"winPercent":50.19,"key":"Vayne","role":"ADC","title":"Vayne"},
{"assists":13.41,"banRate":0.06,"deaths":5.15,"experience":43.83,"goldEarned":9455,"kills":1.36,"largestKillingSpree":0.47,"minionsKilled":46.4,"neutralMinionsKilledEnemyJungle":0.28,"neutralMinionsKilledTeamJungle":0.39,"overallPosition":21,"overallPositionChange":1,"playPercent":1.71,"winPercent":52.14,"key":"Taric","role":"Support","title":"Taric"},
{"assists":13.49,"banRate":0.05,"deaths":5.88,"experience":91.42,"goldEarned":10184,"kills":2.68,"largestKillingSpree":1.14,"minionsKilled":21,"neutralMinionsKilledEnemyJungle":0.34,"neutralMinionsKilledTeamJungle":0.43,"overallPosition":10,"overallPositionChange":-1,"playPercent":4.82,"winPercent":51.7,"key":"Sona","role":"Support","title":"Sona"},
{"assists":10.11,"banRate":1.19,"deaths":7.01,"experience":58.93,"goldEarned":10298,"kills":3.69,"largestKillingSpree":1.48,"minionsKilled":36,"neutralMinionsKilledEnemyJungle":0.55,"neutralMinionsKilledTeamJungle":1.14,"overallPosition":24,"overallPositionChange":-1,"playPercent":1.53,"winPercent":46.87,"key":"Annie","role":"Support","title":"Annie"},
{"assists":10.62,"banRate":19.57,"deaths":5.79,"experience":22.84,"goldEarned":10017,"kills":2.85,"largestKillingSpree":1.21,"minionsKilled":53.5,"neutralMinionsKilledEnemyJungle":0.79,"neutralMinionsKilledTeamJungle":1.83,"overallPosition":14,"overallPositionChange":0,"playPercent":1.77,"winPercent":48.77,"key":"Poppy","role":"Support","title":"Poppy"},
{"assists":12.46,"banRate":38.36,"deaths":5.73,"experience":44.41,"goldEarned":9692,"kills":1.82,"largestKillingSpree":0.68,"minionsKilled":52.6,"neutralMinionsKilledEnemyJungle":0.36,"neutralMinionsKilledTeamJungle":0.62,"overallPosition":13,"overallPositionChange":-5,"playPercent":6.91,"winPercent":50.15,"key":"Nautilus","role":"Support","title":"Nautilus"}]
