"adcsupport":\[[\s\S]*?\],  POR VACIO
"general":\[[\s\S]*?\], POR VACIO
"masteries":\{[\s\S]*?\}\},  POR VACIO
"matchups":\[[\s\S]*?\],  POR VACIO
"overallPosition":\{[\s\S]*?\},  POR VACIO
"runes":\{[\s\S]*?\}\},  POR VACIO
"trinkets":\[[\s\S]*?\],  POR VACIO
"unique":[\s\S]*?\}  POR }
"_id":\{[\s\S]*?\},
{," POR {"
eliminar último objeto de viktor
}}} POR }}}, menos última fila
[ al principio y ] al final